Place,WeightClassKg,Name,BirthDate,Equipment,Team,BodyweightKg,Squat1Kg,Squat2Kg,Squat3Kg,Best3SquatKg,Bench1Kg,Bench2Kg,Bench3Kg,Best3BenchKg,Deadlift1Kg,Deadlift2Kg,Deadlift3Kg,Best3DeadliftKg,TotalKg,Division,Sex,Event
1,63,Maren Hauge,,Raw,Bergen SK,58.10,80,87.5,90,90.0,42.5,45,-50,45.0,100,110,-115,110.0,245,Teen 14-18,F,SBD
1,69,Amir Asadollahzadeh,,Raw,Bergen SK,67.70,175,185,192.5,192.5,115,120,122.5,122.5,220,240,-252.5,240.0,555,Open,F,SBD
1,53,Petter Johnsen Bentdal,,Raw,Bergen SK,48.90,75,80,-82.5,80.0,-37.5,40,45,45.0,85,90,92.5,92.5,217.5,Rekrutt 2,M,SBD
